…
station_info
```

```
## # A tibble: 361 x 5
## # Groups:   station_name [351]
##    station_id station_name          station_latitude station_longitu~ count
##         <dbl> <chr>                            <dbl>            <dbl> <int>
##  1          3 Powell St BART Stati~             37.8            -122. 39518
##  2          4 Cyril Magnin St at E~             37.8            -122.  8066
##  3          5 Powell St BART Stati~             37.8            -122. 31159
##  4          6 The Embarcadero at S~             37.8            -122. 45169
##  5          7 Frank H Ogawa Plaza               37.8            -122. 11058
##  6          8 The Embarcadero at V~             37.8            -122. 15009
##  7          9 Broadway at Battery ~             37.8            -122. 13600
##  8         10 Washington St at Kea~             37.8            -122.  9542
##  9         11 Davis St at Jackson ~             37.8            -122. 12464
## 10         13 Commercial St at Mon~             37.8            -122. 11485
## # ... with 351 more rows
```
…
 All have identical arrival and departure counts, since I initially grouped them by name. 
 So we should pick a single set of lat-long coordinates for each.


```r
# check the duplicate stations
station_stats %>% arrange(desc(station_count)) %>% print(n = 20)
```

```
## # A tibble: 361 x 10
##    station_id n_per_id station_name station_count station_latitude
##         <dbl>    <int> <chr>                <int>            <dbl>
##  1        244        3 Shattuck Av~             3             37.9
##  2        244        3 Shattuck Av~             3             37.9
##  3        244        3 Shattuck Av~             3             37.9
##  4        192        3 37th St at ~             2             37.8
##  5        192        3 37th St at ~             2             37.8
##  6        208        3 S. 4th St a~             2             37.3
##  7        208        3 S. 4th St a~             2             37.3
##  8        130        2 22nd St Cal~             2             37.8
##  9        130        2 22nd St Cal~             2             37.8
## 10        154        2 Doyle St at~             2             37.8
## 11        154        2 Doyle St at~             2             37.8
## 12        224        2 21st Ave at~             2             37.8
## 13        224        2 21st Ave at~             2             37.8
## 14        245        2 Downtown Be~             2             37.9
## 15        245        2 Downtown Be~             2             37.9
## 16        250        2 North Berke~             2             37.9
## 17        250        2 North Berke~             2             37.9
## 18        302        2 Tamien Stat~             2             37.3
## 19        302        2 Tamien Stat~             2             37.3
## 20        192        3 MLK Jr Way ~             1             37.8
## # ... with 341 more rows, and 5 more variables: station_longitude <dbl>,
## #   departure_count <int>, arrival_count <int>, net_change <int>,
## #   prop_inflow <dbl>
```
…
And, now that there is only one set of lat-long coordinates per station name, station_count is superfluous, and n_per_id is outdated


```r
station_stats <- station_stats %>%
  select(-station_count, -n_per_id)

station_stats %>% print(n = 10)
```

```
## # A tibble: 351 x 8
##    station_id station_name station_latitude station_longitu~
##         <dbl> <chr>                   <dbl>            <dbl>
##  1        192 37th St at ~             37.8            -122.
##  2        192 MLK Jr Way ~             37.8            -122.
##  3        205 Miles Ave a~             37.8            -122.
##  4        205 Miles Ave a~             37.8            -122.
##  5        205 Shafter Ave~             37.8            -122.
##  6        208 S. 4th St a~             37.3            -122.
##  7        208 William St ~             37.3            -122.
##  8        221 12th St at ~             37.8            -122.
##  9        221 6th Ave at ~             37.8            -122.
## 10        221 E 12th St a~             37.8            -122.
## # ... with 341 more rows, and 4 more variables: departure_count <int>,
## #   arrival_count <int>, net_change <int>, prop_inflow <dbl>
```
…
